{
	"driverOptions": {
		"seleniumUrl": "http://hub.browserstack.com/wd/hub",
	},
	"driver": "selenium-grid",
	"capabilities": [
		{
			"browserName": "chrome",
			"platform": "windows",
			"browserstack.user" : "username",
			"browserstack.key" : "password"
		},
		{
			"browserName": "firefox",
			"platform": "windows",
			"browserstack.user" : "username",
			"browserstack.key" : "password"
		},
	],
	"tests": [
		"tests/**/*.js"
	],
	"runner": "mocha",
	"runnerOptions": {
		"timeout": 150000,
		"ui": "tdd",
		"reporter": "json",
	},
	"client": "wd-promiseChain"
}